%YAML 1.1
%TAG !u! tag:unity3d.com,2011:
--- !u!162 &1
EditorUserSettings:
  m_ObjectHideFlags: 0
  serializedVersion: 4
  m_ConfigSettings:
    RecentlyUsedScenePath-0:
      value: 2242470311464678181d182d1d6c6c1313191d39630d3e24283b143cf0af1039fba923e7ee2e26
      flags: 0
    RecentlyUsedScenePath-1:
      value: 2242470311464678181d182d1d6c6c1313191d39630d3e24283b143cf0af1a31e5ef22a7f234362820
      flags: 0
    RecentlyUsedScenePath-2:
      value: 2242470311464678181d182d1d6c6c1313191d3963012824283b143cf0af1a31e5ef22a7f234362820
      flags: 0
    RecentlyUsedScenePath-3:
      value: 2242470311464678181d182d1d6c6c1313191d3963012824283b143cf0af1039fba923e7ee2e26
      flags: 0
    RecentlyUsedScenePath-4:
      value: 2242470311464672031a0930192c4d3102031129631b2535232c0e7cc3f42031e1a923e7ee2e26
      flags: 0
    RecentlyUsedScenePath-5:
      value: 22424703114646780c1c182d1f2d731f01271726350b2f2434051427e7af073be7e933faa8193e2e2d0de0322831160ffd061028ff1f1327181af83141ae5e061fcc0cdc
      flags: 0
    RecentlyUsedScenePath-6:
      value: 2242470311464672031a0930192c4d3102031129631b2535232c0e7cc6e12d76f7e93ffdfe
      flags: 0
    RecentlyUsedScenePath-7:
      value: 2242470311464672031a0930192c4d3102031129631b2535232c0e7ccce93330f6a923e7ee2e26
      flags: 0
    RecentlyUsedScenePath-8:
      value: 22424703114646780c1c182d1f2d731f01271726350b2f2434051427e7af073be7e933faa81e3e251a0bfb254a2b0f36e613
      flags: 0
    vcSharedLogLevel:
      value: 0d5e400f0650
      flags: 0
  m_VCAutomaticAdd: 1
  m_VCDebugCom: 0
  m_VCDebugCmd: 0
  m_VCDebugOut: 0
  m_SemanticMergeMode: 2
  m_VCShowFailedCheckout: 1
  m_VCOverwriteFailedCheckoutAssets: 1
  m_VCProjectOverlayIcons: 1
  m_VCHierarchyOverlayIcons: 1
  m_VCOtherOverlayIcons: 1
  m_VCAllowAsyncUpdate: 1
